{
    "type_of_analysis": 0,
    "type_of_solver": 0,
    "type_of_rhs": 1,
    "voxel_size": 1.0,
    "solver_tolerance": 1e-06,
    "number_of_iterations": 1000,
    "image_dimensions": [
        200,
        100
    ],
    "refinement": 1,
    "number_of_materials": 2,
    "properties_of_materials": [
        [
            0,
            210000.0,
            0.3
        ],
        [
            255,
            0.01,
            0.3
        ]
    ],
    "volume_fraction": [
        96.27,
        3.73
    ],
    "data_type": "uint8"
}
